{
  "defaultSeverity": "error",
  "extends": ["tslint:recommended", "tslint-react", "tslint-config-prettier"],
  "jsRules": {},
  "rules": {
    "prettier": true,
    "jsx-no-lambda": false,
    "object-literal-sort-keys": false,
    "ordered-imports": false,
    "curly": false
  },
  "rulesDirectory": ["tslint-plugin-prettier"]
}
